//$data = "studentresult.txt";
//$file = fopen($data, "r");
//$read = fread($file, filesize("studentresult.txt"));
////echo $read;
//$array_convert = explode(" ", $read);
//echo "<pre>";
//print_r($array_convert);
//$array_chunk = array_chunk($array_convert, 2);
//print_r($array_chunk);
//$array_column = array_column($array_chunk, '1');
//print_r($array_column);
//$average = array_sum($array_column)/count($array_column);
//echo "<br>"."<br>"."<br>"."<br>";
//echo "<h3>Average Score : </h3>".$average;
